[gd_scene load_steps=5 format=2]

[ext_resource path="res://Level/test.tres" type="TileSet" id=1]
[ext_resource path="res://Characters/Player.tscn" type="PackedScene" id=2]

[sub_resource type="RectangleShape2D" id=3]
extents = Vector2( 32, 96 )

[sub_resource type="RectangleShape2D" id=5]
extents = Vector2( 32, 96 )

[node name="Level" type="Node2D"]

[node name="PortalLeft" type="Area2D" parent="."]
position = Vector2( 0, 555 )

[node name="CollisionShape2D" type="CollisionShape2D" parent="PortalLeft"]
position = Vector2( 32, -11 )
shape = SubResource( 3 )

[node name="PortalRight" type="Area2D" parent="."]
position = Vector2( 1920, 553 )

[node name="CollisionShape2D" type="CollisionShape2D" parent="PortalRight"]
position = Vector2( -32, -9 )
shape = SubResource( 5 )

[node name="TileMap" type="TileMap" parent="."]
scale = Vector2( 4, 4 )
tile_set = ExtResource( 1 )
cell_size = Vector2( 16, 16 )
cell_quadrant_size = 32
format = 1
tile_data = PoolIntArray( 0, 0, 65543, 1, 0, 196612, 2, 0, 131076, 3, 0, 196612, 4, 0, 131076, 5, 0, 196612, 6, 0, 131076, 7, 0, 196612, 8, 0, 131076, 9, 0, 196612, 10, 0, 131076, 11, 0, 196612, 12, 0, 131076, 13, 0, 196612, 14, 0, 131076, 15, 0, 196612, 16, 0, 131076, 17, 0, 196612, 18, 0, 131076, 19, 0, 196612, 20, 0, 131076, 21, 0, 196612, 22, 0, 131076, 23, 0, 196612, 24, 0, 131076, 25, 0, 196612, 26, 0, 131076, 27, 0, 196612, 28, 0, 131076, 29, 0, 65543, 65536, 0, 196612, 65537, 0, 262144, 65538, 0, 262144, 65539, 0, 262144, 65540, 0, 262144, 65541, 0, 262144, 65542, 0, 262144, 65543, 0, 262144, 65544, 0, 262144, 65545, 0, 262144, 65546, 0, 262144, 65547, 0, 262144, 65548, 0, 262144, 65549, 0, 262144, 65550, 0, 262144, 65551, 0, 262144, 65552, 0, 262144, 65553, 0, 262144, 65554, 0, 262144, 65555, 0, 262144, 65556, 0, 262144, 65557, 0, 262144, 65558, 0, 262144, 65559, 0, 262144, 65560, 0, 262144, 65561, 0, 262144, 65562, 0, 262144, 65563, 0, 262144, 65564, 0, 262144, 65565, 0, 196612, 131072, 0, 131076, 131073, 0, 262144, 131074, 0, 262144, 131075, 0, 262144, 131076, 0, 262144, 131077, 0, 262144, 131078, 0, 262144, 131079, 0, 262144, 131080, 0, 262144, 131081, 0, 262144, 131082, 0, 262144, 131083, 0, 262144, 131084, 0, 262144, 131085, 0, 262144, 131086, 0, 262144, 131087, 0, 262144, 131088, 0, 262144, 131089, 0, 262144, 131090, 0, 262144, 131091, 0, 262144, 131092, 0, 262144, 131093, 0, 262144, 131094, 0, 262144, 131095, 0, 262144, 131096, 0, 262144, 131097, 0, 262144, 131098, 0, 262144, 131099, 0, 262144, 131100, 0, 262144, 131101, 0, 131076, 196608, 0, 196612, 196609, 0, 262144, 196610, 0, 262144, 196611, 0, 262144, 196612, 0, 196614, 196613, 0, 262144, 196614, 0, 262144, 196615, 0, 262144, 196616, 0, 262144, 196617, 0, 262144, 196618, 0, 262144, 196619, 0, 262144, 196620, 0, 262144, 196621, 0, 262144, 196622, 0, 262144, 196623, 0, 262144, 196624, 0, 262144, 196625, 0, 262144, 196626, 0, 262144, 196627, 0, 262144, 196628, 0, 262144, 196629, 0, 262144, 196630, 0, 262144, 196631, 0, 262144, 196632, 0, 262144, 196633, 0, 262144, 196634, 0, 262144, 196635, 0, 262144, 196636, 0, 262144, 196637, 0, 196612, 262144, 0, 131076, 262145, 0, 262144, 262146, 0, 262144, 262147, 0, 262144, 262148, 0, 262144, 262149, 0, 262144, 262150, 0, 262152, 262151, 0, 262152, 262152, 0, 262144, 262153, 0, 262144, 262154, 0, 262144, 262155, 0, 262144, 262156, 0, 262144, 262157, 0, 262144, 262158, 0, 262144, 262159, 0, 262144, 262160, 0, 262144, 262161, 0, 262144, 262162, 0, 262144, 262163, 0, 262144, 262164, 0, 262144, 262165, 0, 262144, 262166, 0, 262144, 262167, 0, 262144, 262168, 0, 262144, 262169, 0, 262144, 262170, 0, 262144, 262171, 0, 262144, 262172, 0, 262144, 262173, 0, 131076, 327680, 0, 196612, 327681, 0, 262144, 327682, 0, 262144, 327683, 0, 262144, 327684, 0, 262144, 327685, 0, 262144, 327686, 0, 262144, 327687, 0, 262152, 327688, 0, 262152, 327689, 0, 262144, 327690, 0, 262144, 327691, 0, 262144, 327692, 0, 262144, 327693, 0, 262144, 327694, 0, 262144, 327695, 0, 262144, 327696, 0, 262144, 327697, 0, 262144, 327698, 0, 262144, 327699, 0, 262144, 327700, 0, 262144, 327701, 0, 262144, 327702, 0, 196614, 327703, 0, 262144, 327704, 0, 262144, 327705, 0, 262144, 327706, 0, 262144, 327707, 0, 262144, 327708, 0, 262144, 327709, 0, 196612, 393216, 0, 65543, 393217, 0, 262144, 393218, 0, 262144, 393219, 0, 262144, 393220, 0, 262144, 393221, 0, 262144, 393222, 0, 262144, 393223, 0, 262144, 393224, 0, 262152, 393225, 0, 262152, 393226, 0, 262144, 393227, 0, 262144, 393228, 0, 262144, 393229, 0, 262144, 393230, 0, 262144, 393231, 0, 262144, 393232, 0, 262144, 393233, 0, 262144, 393234, 0, 262144, 393235, 0, 262144, 393236, 0, 262144, 393237, 0, 262144, 393238, 0, 262144, 393239, 0, 262144, 393240, 0, 262144, 393241, 0, 262144, 393242, 0, 262144, 393243, 0, 262144, 393244, 0, 262144, 393245, 0, 65543, 458752, 0, 262144, 458753, 0, 262144, 458754, 0, 262144, 458755, 0, 262144, 458756, 0, 262144, 458757, 0, 262144, 458758, 0, 262144, 458759, 0, 262144, 458760, 0, 262144, 458761, 0, 262144, 458762, 0, 262152, 458763, 0, 262152, 458764, 0, 262152, 458765, 0, 262144, 458766, 0, 262144, 458767, 0, 262144, 458768, 0, 262144, 458769, 0, 262144, 458770, 0, 262144, 458771, 0, 262144, 458772, 0, 262144, 458773, 0, 262144, 458774, 0, 262144, 458775, 0, 262144, 458776, 0, 262144, 458777, 0, 262144, 458778, 0, 262144, 458779, 0, 262144, 458780, 0, 262144, 458781, 0, 262144, 524288, 0, 262144, 524289, 0, 262144, 524290, 0, 262144, 524291, 0, 262144, 524292, 0, 262144, 524293, 0, 262144, 524294, 0, 262144, 524295, 0, 262144, 524296, 0, 262144, 524297, 0, 262144, 524298, 0, 196614, 524299, 0, 262144, 524300, 0, 262144, 524301, 0, 262152, 524302, 0, 262152, 524303, 0, 262152, 524304, 0, 262152, 524305, 0, 262152, 524306, 0, 262152, 524307, 0, 262152, 524308, 0, 262144, 524309, 0, 262144, 524310, 0, 262144, 524311, 0, 262144, 524312, 0, 262144, 524313, 0, 262144, 524314, 0, 262144, 524315, 0, 262144, 524316, 0, 262144, 524317, 0, 262144, 589824, 0, 262144, 589825, 0, 262144, 589826, 0, 262144, 589827, 0, 262144, 589828, 0, 262144, 589829, 0, 262144, 589830, 0, 262144, 589831, 0, 262144, 589832, 0, 262144, 589833, 0, 262144, 589834, 0, 262144, 589835, 0, 262144, 589836, 0, 262144, 589837, 0, 262144, 589838, 0, 262144, 589839, 0, 262144, 589840, 0, 262144, 589841, 0, 262144, 589842, 0, 262144, 589843, 0, 262144, 589844, 0, 262144, 589845, 0, 262144, 589846, 0, 262144, 589847, 0, 262144, 589848, 0, 262144, 589849, 0, 262144, 589850, 0, 262144, 589851, 0, 262144, 589852, 0, 262144, 589853, 0, 262144, 655360, 0, 65543, 655361, 0, 262144, 655362, 0, 262144, 655363, 0, 262144, 655364, 0, 262144, 655365, 0, 262144, 655366, 0, 262144, 655367, 0, 262144, 655368, 0, 262144, 655369, 0, 262144, 655370, 0, 262144, 655371, 0, 262144, 655372, 0, 262144, 655373, 0, 262144, 655374, 0, 262144, 655375, 0, 262144, 655376, 0, 262144, 655377, 0, 262144, 655378, 0, 262144, 655379, 0, 262144, 655380, 0, 262144, 655381, 0, 262144, 655382, 0, 262144, 655383, 0, 262144, 655384, 0, 262144, 655385, 0, 262144, 655386, 0, 262144, 655387, 0, 262144, 655388, 0, 262144, 655389, 0, 65543, 720896, 0, 196612, 720897, 0, 262144, 720898, 0, 262144, 720899, 0, 262144, 720900, 0, 262144, 720901, 0, 262144, 720902, 0, 262144, 720903, 0, 262144, 720904, 0, 262144, 720905, 0, 262144, 720906, 0, 262144, 720907, 0, 262144, 720908, 0, 262144, 720909, 0, 262144, 720910, 0, 262144, 720911, 0, 262144, 720912, 0, 262144, 720913, 0, 262144, 720914, 0, 262144, 720915, 0, 262144, 720916, 0, 262144, 720917, 0, 262144, 720918, 0, 262144, 720919, 0, 262144, 720920, 0, 262144, 720921, 0, 262144, 720922, 0, 262144, 720923, 0, 262144, 720924, 0, 262144, 720925, 0, 196612, 786432, 0, 131076, 786433, 0, 262144, 786434, 0, 262144, 786435, 0, 262144, 786436, 0, 262144, 786437, 0, 196614, 786438, 0, 262144, 786439, 0, 262144, 786440, 0, 262144, 786441, 0, 262144, 786442, 0, 262144, 786443, 0, 262144, 786444, 0, 262144, 786445, 0, 262144, 786446, 0, 262144, 786447, 0, 262144, 786448, 0, 262144, 786449, 0, 262144, 786450, 0, 262144, 786451, 0, 262144, 786452, 0, 196614, 786453, 0, 262144, 786454, 0, 262144, 786455, 0, 262144, 786456, 0, 262144, 786457, 0, 262144, 786458, 0, 262144, 786459, 0, 262144, 786460, 0, 262144, 786461, 0, 131076, 851968, 0, 196612, 851969, 0, 262144, 851970, 0, 262144, 851971, 0, 262144, 851972, 0, 262144, 851973, 0, 262144, 851974, 0, 262144, 851975, 0, 262144, 851976, 0, 262144, 851977, 0, 262144, 851978, 0, 262144, 851979, 0, 262144, 851980, 0, 262144, 851981, 0, 262144, 851982, 0, 262144, 851983, 0, 262144, 851984, 0, 262144, 851985, 0, 262144, 851986, 0, 262144, 851987, 0, 262144, 851988, 0, 262144, 851989, 0, 262144, 851990, 0, 262144, 851991, 0, 262144, 851992, 0, 262144, 851993, 0, 262144, 851994, 0, 196614, 851995, 0, 262144, 851996, 0, 262144, 851997, 0, 196612, 917504, 0, 131076, 917505, 0, 262144, 917506, 0, 262144, 917507, 0, 262144, 917508, 0, 262144, 917509, 0, 262144, 917510, 0, 262144, 917511, 0, 262144, 917512, 0, 262144, 917513, 0, 262144, 917514, 0, 262144, 917515, 0, 262144, 917516, 0, 262144, 917517, 0, 262144, 917518, 0, 262144, 917519, 0, 262144, 917520, 0, 262144, 917521, 0, 262144, 917522, 0, 262144, 917523, 0, 262144, 917524, 0, 262144, 917525, 0, 262144, 917526, 0, 262144, 917527, 0, 262144, 917528, 0, 262144, 917529, 0, 262144, 917530, 0, 262144, 917531, 0, 262144, 917532, 0, 262144, 917533, 0, 131076, 983040, 0, 196612, 983041, 0, 262144, 983042, 0, 262144, 983043, 0, 262144, 983044, 0, 262144, 983045, 0, 262144, 983046, 0, 262144, 983047, 0, 262144, 983048, 0, 262144, 983049, 0, 262144, 983050, 0, 262144, 983051, 0, 262144, 983052, 0, 262144, 983053, 0, 262144, 983054, 0, 262144, 983055, 0, 262144, 983056, 0, 262144, 983057, 0, 262144, 983058, 0, 262144, 983059, 0, 262144, 983060, 0, 262144, 983061, 0, 262144, 983062, 0, 262144, 983063, 0, 262144, 983064, 0, 262144, 983065, 0, 262144, 983066, 0, 262144, 983067, 0, 262144, 983068, 0, 262144, 983069, 0, 196612, 1048576, 0, 65543, 1048577, 0, 196612, 1048578, 0, 131076, 1048579, 0, 196612, 1048580, 0, 131076, 1048581, 0, 196612, 1048582, 0, 131076, 1048583, 0, 196612, 1048584, 0, 131076, 1048585, 0, 196612, 1048586, 0, 131076, 1048587, 0, 196612, 1048588, 0, 131076, 1048589, 0, 196612, 1048590, 0, 131076, 1048591, 0, 196612, 1048592, 0, 131076, 1048593, 0, 196612, 1048594, 0, 131076, 1048595, 0, 196612, 1048596, 0, 131076, 1048597, 0, 196612, 1048598, 0, 131076, 1048599, 0, 196612, 1048600, 0, 131076, 1048601, 0, 196612, 1048602, 0, 131076, 1048603, 0, 196612, 1048604, 0, 131076, 1048605, 0, 65543 )

[node name="Player" parent="." instance=ExtResource( 2 )]
position = Vector2( 896, 192 )
